PC_32_bits/PC_32_bits/wave_pc.vcd
$date
     Dec 13, 2020       11:13:51
$end

$version
 SystemC 2.3.3-Accellera --- Nov 12 2020 19:12:35
$end

$timescale
     1 ps
$end

$scope module SystemC $end
$var wire    1  aaaaa  i_CLK       $end
$var wire   32  aaaab  i_Next_PC [31:0]  $end
$var wire   32  aaaac  o_PC [31:0]  $end
$upscope $end
$enddefinitions  $end

$comment
All initial values are dumped below at time 0 sec = 0 timescale units.
$end

$dumpvars
1aaaaa
b0 aaaab
b0 aaaac
$end

#25000
0aaaaa

#50000
1aaaaa
b1 aaaab

#75000
0aaaaa

#100000
1aaaaa
b10 aaaab
b1 aaaac

#125000
0aaaaa

#150000
1aaaaa
b100 aaaab
b10 aaaac

#175000
0aaaaa

#200000
1aaaaa
b0 aaaab
b100 aaaac

#225000
0aaaaa

#250000
1aaaaa
b1 aaaab
b0 aaaac

#275000
0aaaaa

#300000
1aaaaa
b10 aaaab
b1 aaaac

#325000
0aaaaa

#350000
1aaaaa
b100 aaaab
b10 aaaac

#375000
0aaaaa

#400000
1aaaaa
b0 aaaab
b100 aaaac

#425000
0aaaaa

#450000
1aaaaa
b1 aaaab
b0 aaaac

#475000
0aaaaa

#500000
1aaaaa
b10 aaaab
b1 aaaac

#525000
0aaaaa

#550000
1aaaaa
b100 aaaab
b10 aaaac

