ADDER_SHIFT_32_bits/ADDER_SHIFT_32_bits/wave_adder_shift.vcd
$date
     Dec 13, 2020       11:38:21
$end

$version
 SystemC 2.3.3-Accellera --- Nov 12 2020 19:12:35
$end

$timescale
     1 ps
$end

$scope module SystemC $end
$var wire    1  aaaaa  clock       $end
$var wire   32  aaaab  i_Data0 [31:0]  $end
$var wire   32  aaaac  i_Data1 [31:0]  $end
$var wire   32  aaaad  o_Data [31:0]  $end
$upscope $end
$enddefinitions  $end

$comment
All initial values are dumped below at time 0 sec = 0 timescale units.
$end

$dumpvars
1aaaaa
b1 aaaab
b1 aaaac
b101 aaaad
$end

#25000
0aaaaa

#50000
1aaaaa
b10 aaaab
b110 aaaad

#75000
0aaaaa

#100000
1aaaaa
b10000000000000000000010 aaaab
b1000000000000000000001 aaaac
b110000000000000000000110 aaaad

#125000
0aaaaa

#150000
1aaaaa
b1 aaaab
b1 aaaac
b101 aaaad

#175000
0aaaaa

#200000
1aaaaa
b10 aaaab
b110 aaaad

#225000
0aaaaa

#250000
1aaaaa
b10000000000000000000010 aaaab
b1000000000000000000001 aaaac
b110000000000000000000110 aaaad

#275000
0aaaaa

#300000
1aaaaa
b1 aaaab
b1 aaaac
b101 aaaad

#325000
0aaaaa

#350000
1aaaaa
b10 aaaab
b110 aaaad

#375000
0aaaaa

#400000
1aaaaa
b10000000000000000000010 aaaab
b1000000000000000000001 aaaac
b110000000000000000000110 aaaad

#425000
0aaaaa

#450000
1aaaaa
b1 aaaab
b1 aaaac
b101 aaaad

#475000
0aaaaa

#500000
1aaaaa
b10 aaaab
b110 aaaad

#525000
0aaaaa

#550000
1aaaaa
b10000000000000000000010 aaaab
b1000000000000000000001 aaaac
b110000000000000000000110 aaaad

