SHIFT_LEFT_32_bits/SHIFT_LEFT_32_bits/wave_shift_left.vcd
$date
     Dec 13, 2020       13:33:18
$end

$version
 SystemC 2.3.3-Accellera --- Nov 12 2020 19:12:35
$end

$timescale
     1 ps
$end

$scope module SystemC $end
$var wire    1  aaaaa  clock       $end
$var wire   32  aaaab  mi_Data [31:0]  $end
$var wire   32  aaaac  mo_Data [31:0]  $end
$upscope $end
$enddefinitions  $end

$comment
All initial values are dumped below at time 0 sec = 0 timescale units.
$end

$dumpvars
1aaaaa
b0 aaaab
b0 aaaac
$end

#25000
0aaaaa

#50000
1aaaaa
b1 aaaab
b100 aaaac

#75000
0aaaaa

#100000
1aaaaa
b10 aaaab
b1000 aaaac

#125000
0aaaaa

#150000
1aaaaa
b100 aaaab
b10000 aaaac

#175000
0aaaaa

#200000
1aaaaa
b101 aaaab
b10100 aaaac

#225000
0aaaaa

#250000
1aaaaa
b0 aaaab
b0 aaaac

#275000
0aaaaa

#300000
1aaaaa
b1 aaaab
b100 aaaac

#325000
0aaaaa

#350000
1aaaaa
b10 aaaab
b1000 aaaac

#375000
0aaaaa

#400000
1aaaaa
b100 aaaab
b10000 aaaac

#425000
0aaaaa

#450000
1aaaaa
b101 aaaab
b10100 aaaac

#475000
0aaaaa

#500000
1aaaaa
b0 aaaab
b0 aaaac

#525000
0aaaaa

#550000
1aaaaa
b1 aaaab
b100 aaaac

