CONTROLE_ULA_32_bits/CONTROLE_ULA_32_bits/wave_controle_ula.vcd
$date
     Dec 13, 2020       09:47:29
$end

$version
 SystemC 2.3.3-Accellera --- Nov 12 2020 19:12:35
$end

$timescale
     1 ps
$end

$scope module SystemC $end
$var wire    1  aaaaa  clock       $end
$var wire    2  aaaab  i_ALUOp [1:0]  $end
$var wire    6  aaaac  i_Func [5:0]  $end
$var wire    3  aaaad  o_ALUControl [2:0]  $end
$upscope $end
$enddefinitions  $end

$comment
All initial values are dumped below at time 0 sec = 0 timescale units.
$end

$dumpvars
1aaaaa
b0 aaaab
b0 aaaac
b10 aaaad
$end

#25000
0aaaaa

#50000
1aaaaa
b1 aaaab
b110 aaaad

#75000
0aaaaa

#100000
1aaaaa
b10 aaaab
b100000 aaaac
b10 aaaad

#125000
0aaaaa

#150000
1aaaaa
b100010 aaaac
b110 aaaad

#175000
0aaaaa

#200000
1aaaaa
b100100 aaaac
b0 aaaad

#225000
0aaaaa

#250000
1aaaaa
b100101 aaaac
b1 aaaad

#275000
0aaaaa

#300000
1aaaaa
b101010 aaaac
b111 aaaad

#325000
0aaaaa

#350000
1aaaaa
b0 aaaab
b0 aaaac
b10 aaaad

#375000
0aaaaa

#400000
1aaaaa
b1 aaaab
b110 aaaad

#425000
0aaaaa

#450000
1aaaaa
b10 aaaab
b100000 aaaac
b10 aaaad

#475000
0aaaaa

#500000
1aaaaa
b100010 aaaac
b110 aaaad

#525000
0aaaaa

#550000
1aaaaa
b100100 aaaac
b0 aaaad

